{
    "version": "https://jsonfeed.org/version/1",
    "title": "Thrifty Engineer",
    "description": "",
    "home_page_url": "https://ravikirancg.gitlab.io/publii-te",
    "feed_url": "https://ravikirancg.gitlab.io/publii-te/feed.json",
    "user_comment": "",
    "author": {
        "name": "Ravi Kiran"
    },
    "items": [
        {
            "id": "https://ravikirancg.gitlab.io/publii-te/test-post-2.html",
            "url": "https://ravikirancg.gitlab.io/publii-te/test-post-2.html",
            "title": "Test post 2",
            "summary": "Ipsum lorem doremi. Did I spell that right?",
            "content_html": "Ipsum lorem doremi. Did I spell that right?",
            "image": "https://ravikirancg.gitlab.io/publii-te/media/posts/2/",
            "author": {
                "name": "Ravi Kiran"
            },
            "tags": [
            ],
            "date_published": "2019-02-24T14:05:19+05:30",
            "date_modified": "2019-02-24T14:05:19+05:30"
        },
        {
            "id": "https://ravikirancg.gitlab.io/publii-te/test-post-1.html",
            "url": "https://ravikirancg.gitlab.io/publii-te/test-post-1.html",
            "title": "Test Post 1",
            "summary": "Ipsum lorem ... That's it. Don't know the rest.",
            "content_html": "Ipsum lorem ... That's it. Don't know the rest.",
            "image": "https://ravikirancg.gitlab.io/publii-te/media/posts/1/",
            "author": {
                "name": "Ravi Kiran"
            },
            "tags": [
            ],
            "date_published": "2019-02-24T14:02:22+05:30",
            "date_modified": "2019-02-24T14:02:22+05:30"
        }
    ]
}
